WWWWWWWWWWWWWWWWWWWWWWWWWWWWWWWWWWWWWWW
WRRRRRR                               W
WRRRRRRR        RRR                E  W
WRRRRRR       RRRRRRR                 W
WRRRR       RRRRRRRRRRR               W
WRRR          RRRRRRR             WWWWW
W       P       RRR     RRR       WWWWW
W                     RRRRRRR     WWWWW
W           WW          RRR           W
W         RRWW
W         RRRR
W         RRRR    WW
W                 WW        RRRRRR    W
W                           RRRRRR    W
W                           RRRRRR    W
WWWWWWWWWWWWWWWWWWWWWWWWWWWWWWWWWWWWWWW